simulation/qsim/LogicalStep_Lab2.msim.vcd
$comment
	File created using the following command:
		vcd file LogicalStep_Lab2.msim.vcd -direction
$end
$date
	Mon Jun 10 21:24:42 2024
$end
$version
	ModelSim Version 10.5b
$end
$timescale
	1ps
$end

$scope module logicalstep_lab2_top_vhd_vec_tst $end
$var wire 1 ! clkin_50 $end
$var wire 1 " leds [7] $end
$var wire 1 # leds [6] $end
$var wire 1 $ leds [5] $end
$var wire 1 % leds [4] $end
$var wire 1 & leds [3] $end
$var wire 1 ' leds [2] $end
$var wire 1 ( leds [1] $end
$var wire 1 ) leds [0] $end
$var wire 1 * pb_n [3] $end
$var wire 1 + pb_n [2] $end
$var wire 1 , pb_n [1] $end
$var wire 1 - pb_n [0] $end
$var wire 1 . seg7_char1 $end
$var wire 1 / seg7_char2 $end
$var wire 1 0 seg7_data [6] $end
$var wire 1 1 seg7_data [5] $end
$var wire 1 2 seg7_data [4] $end
$var wire 1 3 seg7_data [3] $end
$var wire 1 4 seg7_data [2] $end
$var wire 1 5 seg7_data [1] $end
$var wire 1 6 seg7_data [0] $end
$var wire 1 7 sw [7] $end
$var wire 1 8 sw [6] $end
$var wire 1 9 sw [5] $end
$var wire 1 : sw [4] $end
$var wire 1 ; sw [3] $end
$var wire 1 < sw [2] $end
$var wire 1 = sw [1] $end
$var wire 1 > sw [0] $end

$scope module i1 $end
$var wire 1 ? gnd $end
$var wire 1 @ vcc $end
$var wire 1 A unknown $end
$var wire 1 B devoe $end
$var wire 1 C devclrn $end
$var wire 1 D devpor $end
$var wire 1 E ww_devoe $end
$var wire 1 F ww_devclrn $end
$var wire 1 G ww_devpor $end
$var wire 1 H ww_clkin_50 $end
$var wire 1 I ww_pb_n [3] $end
$var wire 1 J ww_pb_n [2] $end
$var wire 1 K ww_pb_n [1] $end
$var wire 1 L ww_pb_n [0] $end
$var wire 1 M ww_sw [7] $end
$var wire 1 N ww_sw [6] $end
$var wire 1 O ww_sw [5] $end
$var wire 1 P ww_sw [4] $end
$var wire 1 Q ww_sw [3] $end
$var wire 1 R ww_sw [2] $end
$var wire 1 S ww_sw [1] $end
$var wire 1 T ww_sw [0] $end
$var wire 1 U ww_leds [7] $end
$var wire 1 V ww_leds [6] $end
$var wire 1 W ww_leds [5] $end
$var wire 1 X ww_leds [4] $end
$var wire 1 Y ww_leds [3] $end
$var wire 1 Z ww_leds [2] $end
$var wire 1 [ ww_leds [1] $end
$var wire 1 \ ww_leds [0] $end
$var wire 1 ] ww_seg7_data [6] $end
$var wire 1 ^ ww_seg7_data [5] $end
$var wire 1 _ ww_seg7_data [4] $end
$var wire 1 ` ww_seg7_data [3] $end
$var wire 1 a ww_seg7_data [2] $end
$var wire 1 b ww_seg7_data [1] $end
$var wire 1 c ww_seg7_data [0] $end
$var wire 1 d ww_seg7_char1 $end
$var wire 1 e ww_seg7_char2 $end
$var wire 1 f \pb_n[3]~input_o\ $end
$var wire 1 g \seg7_data[1]~output_o\ $end
$var wire 1 h \seg7_data[5]~output_o\ $end
$var wire 1 i \seg7_data[6]~output_o\ $end
$var wire 1 j \leds[0]~output_o\ $end
$var wire 1 k \leds[1]~output_o\ $end
$var wire 1 l \leds[2]~output_o\ $end
$var wire 1 m \leds[3]~output_o\ $end
$var wire 1 n \leds[4]~output_o\ $end
$var wire 1 o \leds[5]~output_o\ $end
$var wire 1 p \leds[6]~output_o\ $end
$var wire 1 q \leds[7]~output_o\ $end
$var wire 1 r \seg7_data[0]~output_o\ $end
$var wire 1 s \seg7_data[2]~output_o\ $end
$var wire 1 t \seg7_data[3]~output_o\ $end
$var wire 1 u \seg7_data[4]~output_o\ $end
$var wire 1 v \seg7_char1~output_o\ $end
$var wire 1 w \seg7_char2~output_o\ $end
$var wire 1 x \sw[0]~input_o\ $end
$var wire 1 y \pb_n[2]~input_o\ $end
$var wire 1 z \sw[4]~input_o\ $end
$var wire 1 { \INST8|mux_out[0]~0_combout\ $end
$var wire 1 | \sw[1]~input_o\ $end
$var wire 1 } \sw[5]~input_o\ $end
$var wire 1 ~ \INST6|INST2|full_adder_soutput~combout\ $end
$var wire 1 !! \INST8|mux_out[1]~1_combout\ $end
$var wire 1 "! \sw[2]~input_o\ $end
$var wire 1 #! \sw[6]~input_o\ $end
$var wire 1 $! \INST6|INST2|full_adder_coutput~0_combout\ $end
$var wire 1 %! \INST8|mux_out[2]~2_combout\ $end
$var wire 1 &! \sw[3]~input_o\ $end
$var wire 1 '! \sw[7]~input_o\ $end
$var wire 1 (! \INST6|INST3|full_adder_coutput~0_combout\ $end
$var wire 1 )! \INST8|mux_out[3]~3_combout\ $end
$var wire 1 *! \INST1|Mux5~0_combout\ $end
$var wire 1 +! \INST7|mux_out[0]~0_combout\ $end
$var wire 1 ,! \INST7|mux_out[0]~1_combout\ $end
$var wire 1 -! \INST7|mux_out[1]~2_combout\ $end
$var wire 1 .! \INST7|mux_out[2]~3_combout\ $end
$var wire 1 /! \INST7|mux_out[3]~4_combout\ $end
$var wire 1 0! \INST2|Mux5~0_combout\ $end
$var wire 1 1! \clkin_50~input_o\ $end
$var wire 1 2! \INST3|clk_proc:COUNT[0]~0_combout\ $end
$var wire 1 3! \INST3|clk_proc:COUNT[0]~q\ $end
$var wire 1 4! \INST3|clk_proc:COUNT[1]~1_combout\ $end
$var wire 1 5! \INST3|clk_proc:COUNT[1]~q\ $end
$var wire 1 6! \INST3|clk_proc:COUNT[1]~2\ $end
$var wire 1 7! \INST3|clk_proc:COUNT[2]~1_combout\ $end
$var wire 1 8! \INST3|clk_proc:COUNT[2]~q\ $end
$var wire 1 9! \INST3|clk_proc:COUNT[2]~2\ $end
$var wire 1 :! \INST3|clk_proc:COUNT[3]~1_combout\ $end
$var wire 1 ;! \INST3|clk_proc:COUNT[3]~q\ $end
$var wire 1 <! \INST3|clk_proc:COUNT[3]~2\ $end
$var wire 1 =! \INST3|clk_proc:COUNT[4]~1_combout\ $end
$var wire 1 >! \INST3|clk_proc:COUNT[4]~q\ $end
$var wire 1 ?! \INST3|clk_proc:COUNT[4]~2\ $end
$var wire 1 @! \INST3|clk_proc:COUNT[5]~1_combout\ $end
$var wire 1 A! \INST3|clk_proc:COUNT[5]~q\ $end
$var wire 1 B! \INST3|clk_proc:COUNT[5]~2\ $end
$var wire 1 C! \INST3|clk_proc:COUNT[6]~1_combout\ $end
$var wire 1 D! \INST3|clk_proc:COUNT[6]~q\ $end
$var wire 1 E! \INST3|clk_proc:COUNT[6]~2\ $end
$var wire 1 F! \INST3|clk_proc:COUNT[7]~1_combout\ $end
$var wire 1 G! \INST3|clk_proc:COUNT[7]~q\ $end
$var wire 1 H! \INST3|clk_proc:COUNT[7]~2\ $end
$var wire 1 I! \INST3|clk_proc:COUNT[8]~1_combout\ $end
$var wire 1 J! \INST3|clk_proc:COUNT[8]~q\ $end
$var wire 1 K! \INST3|clk_proc:COUNT[8]~2\ $end
$var wire 1 L! \INST3|clk_proc:COUNT[9]~1_combout\ $end
$var wire 1 M! \INST3|clk_proc:COUNT[9]~q\ $end
$var wire 1 N! \INST3|clk_proc:COUNT[9]~2\ $end
$var wire 1 O! \INST3|clk_proc:COUNT[10]~1_combout\ $end
$var wire 1 P! \INST3|clk_proc:COUNT[10]~q\ $end
$var wire 1 Q! \INST3|DOUT_TEMP[1]~0_combout\ $end
$var wire 1 R! \INST1|Mux1~0_combout\ $end
$var wire 1 S! \INST2|Mux1~0_combout\ $end
$var wire 1 T! \INST3|DOUT_TEMP[5]~1_combout\ $end
$var wire 1 U! \INST1|Mux0~0_combout\ $end
$var wire 1 V! \INST2|Mux0~0_combout\ $end
$var wire 1 W! \INST3|DOUT_TEMP[6]~2_combout\ $end
$var wire 1 X! \pb_n[1]~input_o\ $end
$var wire 1 Y! \pb_n[0]~input_o\ $end
$var wire 1 Z! \INST5|Mux3~0_combout\ $end
$var wire 1 [! \INST5|Mux2~0_combout\ $end
$var wire 1 \! \INST5|Mux1~0_combout\ $end
$var wire 1 ]! \INST5|Mux0~0_combout\ $end
$var wire 1 ^! \INST1|Mux6~0_combout\ $end
$var wire 1 _! \INST2|Mux6~0_combout\ $end
$var wire 1 `! \INST3|DOUT[0]~0_combout\ $end
$var wire 1 a! \INST1|Mux4~0_combout\ $end
$var wire 1 b! \INST2|Mux4~0_combout\ $end
$var wire 1 c! \INST3|DOUT[2]~2_combout\ $end
$var wire 1 d! \INST1|Mux3~0_combout\ $end
$var wire 1 e! \INST2|Mux3~0_combout\ $end
$var wire 1 f! \INST3|DOUT[3]~3_combout\ $end
$var wire 1 g! \INST1|Mux2~0_combout\ $end
$var wire 1 h! \INST2|Mux2~0_combout\ $end
$var wire 1 i! \INST3|DOUT[4]~4_combout\ $end
$var wire 1 j! \INST3|ALT_INV_clk_proc:COUNT[10]~q\ $end
$var wire 1 k! \INST3|ALT_INV_DOUT[4]~4_combout\ $end
$var wire 1 l! \INST3|ALT_INV_DOUT[3]~3_combout\ $end
$var wire 1 m! \INST3|ALT_INV_DOUT[2]~2_combout\ $end
$var wire 1 n! \INST3|ALT_INV_DOUT[0]~0_combout\ $end
$upscope $end
$upscope $end
$enddefinitions $end
#0
$dumpvars
x!
1.
0/
0?
1@
xA
1B
1C
1D
1E
1F
1G
xH
1d
0e
xf
zg
zh
zi
1j
0k
0l
0m
0n
0o
0p
0q
xr
1s
xt
0u
1v
0w
1x
xy
1z
x{
0|
1}
0~
0!!
0"!
1#!
1$!
0%!
1&!
0'!
1(!
x)!
0*!
1+!
1,!
x-!
x.!
0/!
x0!
x1!
12!
03!
04!
05!
06!
07!
08!
19!
0:!
0;!
0<!
0=!
0>!
1?!
0@!
0A!
0B!
0C!
0D!
1E!
0F!
0G!
0H!
0I!
0J!
1K!
0L!
0M!
0N!
0O!
0P!
xQ!
xR!
xS!
xT!
xU!
xV!
xW!
1X!
1Y!
1Z!
0[!
0\!
0]!
x^!
x_!
x`!
0a!
0b!
0c!
xd!
xe!
xf!
xg!
1h!
1i!
1j!
0k!
xl!
1m!
xn!
x*
x+
1,
1-
07
18
19
1:
1;
0<
0=
1>
0"
0#
0$
0%
0&
0'
0(
1)
z0
z1
02
x3
14
z5
x6
xI
xJ
1K
1L
0M
1N
1O
1P
1Q
0R
0S
1T
0U
0V
0W
0X
0Y
0Z
0[
1\
z]
z^
0_
x`
1a
zb
xc
$end
#100000
0-
0L
0Y!
1[!
1\!
1]!
1m
1l
1k
1Y
1Z
1[
1(
1'
1&
#200000
1-
0,
1L
0K
0X!
1Y!
0Z!
0j
0\
0)
#300000
0-
0L
0Y!
1Z!
0[!
0\!
0]!
0m
0l
0k
1j
0Y
0Z
0[
1\
1)
0(
0'
0&
#400000
1-
1,
17
08
0:
0;
1<
1L
1K
1R
0Q
0P
0N
1M
1'!
0#!
0z
0&!
1"!
1X!
1Y!
1{
1~
0$!
x,!
0Z!
x%!
0.!
0)!
x/!
0j
xb!
xh!
1%!
0(!
x!!
x*!
1g!
0\
x)!
0+!
0^!
xi!
xc!
0)
xm!
xk!
0,!
x^!
xa!
xg!
xu
xs
00!
0_!
0h!
x_
xa
x4
x2
0i!
0`!
1Q!
1n!
1k!
1u
1r
1_
1c
16
12
#500000
0-
0L
0Y!
1Z!
1[!
1\!
1]!
1m
1l
1k
1j
1Y
1Z
1[
1\
1)
1(
1'
1&
#600000
1-
0,
1L
0K
0X!
1Y!
#700000
0-
0L
0Y!
0Z!
0[!
0\!
0]!
0m
0l
0k
0j
0Y
0Z
0[
0\
0)
0(
0'
0&
#800000
1-
1,
18
1;
0<
09
1=
1L
1K
1S
0R
1Q
0O
1N
1#!
0}
1&!
0"!
1|
1X!
1Y!
1!!
1+!
1]!
0-!
x%!
x.!
1m
x0!
x_!
xh!
x,!
1Y
xi!
x`!
xQ!
1&
xn!
xk!
xu
xr
x_
xc
x6
x2
#900000
0-
0L
0Y!
1Z!
1[!
1\!
1l
1k
1j
1Z
1[
1\
1)
1(
1'
#1000000
1-
0,
1L
0K
0X!
1Y!
0]!
0m
0Y
0&
#1100000
0-
0L
0Y!
0Z!
0[!
0\!
1]!
1m
0l
0k
0j
1Y
0Z
0[
0\
0)
0(
0'
1&
#1200000
1-
1,
08
1<
07
1L
1K
1R
0N
0M
0'!
0#!
1"!
1X!
1Y!
1%!
0.!
1)!
0+!
0/!
0]!
0m
0,!
00!
0V!
0b!
1*!
0R!
1U!
0^!
1a!
1d!
0g!
0Y
0c!
0W!
1Q!
0S!
0_!
0e!
0h!
0&
1m!
0i
0i!
0f!
0`!
1T!
1s
1n!
1l!
1k!
0]
1a
00
1u
1t
1r
14
1_
1`
1c
16
13
12
#1300000
0-
0L
0Y!
1Z!
1[!
1\!
1]!
1m
1l
1k
1j
1Y
1Z
1[
1\
1)
1(
1'
1&
#1400000
1-
0,
1L
0K
0X!
1Y!
#1500000
0-
0L
0Y!
0Z!
0[!
0\!
0]!
0m
0l
0k
0j
0Y
0Z
0[
0\
0)
0(
0'
0&
